^C:\USERS\PAVELZ\SOURCE\REPOS\HOMEWORK17\HOMEWORK17\DEBUG\HOMEWORK17.OBJ
C:\USERS\PAVELZ\SOURCE\REPOS\HOMEWORK17\DEBUG\HOMEWORK17.EXE
C:\USERS\PAVELZ\SOURCE\REPOS\HOMEWORK17\DEBUG\HOMEWORK17.ILK
C:\USERS\PAVELZ\SOURCE\REPOS\HOMEWORK17\DEBUG\HOMEWORK17.PDB
